[
  {
    "name": "Palay",
    "value": "palay",
  },
  {
    "name": "Corn",
    "value": "corn",
  },
  {
    "name": "Banana",
    "value": "banana",
  },
  {
    "name": "Coconut",
    "value": "coconut",
  },
  {
    "name": "Mango",
    "value": "mango",
  },
  {
    "name": "Sugarcane",
    "value": "sugarcane",
  },
  {
    "name": "Pineapple",
    "value": "pineapple",
  },
  {
    "name": "Cassava",
    "value": "cassava",
  },
  {
    "name": "Rubber",
    "value": "rubber",
  },
  {
    "name": "Sweet Potato",
    "value": "sweetpotato",
  },
  {
    "name": "Onion",
    "value": "onion",
  },
  {
    "name": "Eggplant",
    "value": "eggplant",
  },
  {
    "name": "Coffee",
    "value": "coffee",
  },
  {
    "name": "Tobacco",
    "value": "tobacco",
  },
  {
    "name": "Abaca",
    "value": "abaca",
  },
  {
    "name": "Tomato",
    "value": "tomato",
  },
  {
    "name": "Potato",
    "value": "potato",
  },
  {
    "name": "Ampalaya",
    "value": "010000000",
  },
  {
    "name": "ampalaya",
    "value": "010000000",
  },
  {
    "name": "Calamansi",
    "value": "calamansi",
  },
  {
    "name": "Mongo",
    "value": "mongo",
  },
  {
    "name": "Cacao",
    "value": "cacao",
  },
  {
    "name": "Other Crops",
    "value": "othercrops",
  }
]